<svg xmlns="http://www.w3.org/2000/svg" width="120" height="98" fill="none"><rect id="backgroundrect" width="100%" height="100%" x="0" y="0" fill="none" stroke="none"/>

<defs>
<filter id="filter0_d" x="0.8528439998626709" y="0.25" width="118.29399871826172" height="97.36289978027344" filterUnits="userSpaceOnUse" color-interpolation-filters="sRGB">
<feFlood flood-opacity="0" result="BackgroundImageFix"/>
<feColorMatrix in="SourceAlpha" type="matrix" values="0 0 0 0 0 0 0 0 0 0 0 0 0 0 0 0 0 0 127 0"/>
<feOffset dx="1" dy="1"/>
<feGaussianBlur stdDeviation="7.5"/>
<feColorMatrix type="matrix" values="0 0 0 0 0 0 0 0 0 0 0 0 0 0 0 0 0 0 0.25 0"/>
<feBlend mode="normal" in2="BackgroundImageFix" result="effect1_dropShadow"/>
<feBlend mode="normal" in="SourceGraphic" in2="effect1_dropShadow" result="shape"/>
</filter>
<linearGradient id="paint0_linear" x1="1.1115907969559946" y1="0.3451454743759195" x2="-0.11159138561519963" y2="0.3451454743759195">
<stop stop-color="#FF8C59"/>
<stop offset="0.414365" stop-color="#FF8C59"/>
</linearGradient>
</defs>
<g class="currentLayer" style=""><title>Layer 1</title><g filter="url(#filter0_d)" id="svg_1" class="" fill-opacity="1" fill="#ff8c59">
<path d="M61.4918 80.2836C60.3034 82.056 57.6966 82.056 56.5082 80.2836L15.3662 18.9207C14.0298 16.9275 15.4583 14.25 17.8579 14.25H100.142C102.542 14.25 103.97 16.9275 102.634 18.9207L61.4918 80.2836Z" fill="#ff8c59" id="svg_2"/>
</g></g></svg>